r2mlm: R-squared for Multilevel Models
…
5 graph outputs: model A and B each overall, then comparisons of within, between, and total.

There is also manual entry for model comparison, but its verbose so were not going to look at it here.

Non-CWC Model Options

# You can see the centering, each school has a mean of zero
teachsat %>% 
  group_by(schoolID) %>% 
  summarize(
    mean(salary_c)
  )

## # A tibble: 300 x 2
##    schoolID `mean(salary_c)`
##       <int>            <dbl>
##  1        1         1.82e-16
##  2        2        -2.66e-16
##  3        3         2.66e-16
##  4        4        -7.46e-18
##  5        5        -4.62e-17
##  6        6         1.26e-16
##  7        7         2.00e-16
##  8        8        -5.94e-17
##  9        9         8.52e-17
## 10       10         7.40e-17
## #  with 290 more rows

# Remove centering on salary by adding a constant to each value
teachsat <- teachsat %>%
  mutate(salary = salary_c + 1)

# You can see mean is no longer zero
teachsat %>% 
  group_by(schoolID) %>% 
  summarize(
    mean(salary)
  )

## # A tibble: 300 x 2
##    schoolID `mean(salary)`
##       <int>          <dbl>
##  1        1              1
##  2        2              1
##  3        3              1
##  4        4              1
##  5        5              1
##  6        6              1
##  7        7              1
##  8        8              1
##  9        9              1
## 10       10              1
## #  with 290 more rows
…
